{
  "uid" : "83edc06c07f9ae9e47eb6dd1b683e4e2",
  "name" : "packages",
  "children" : [ {
    "name" : "testcase.api",
    "children" : [ {
      "name" : "test_account",
      "children" : [ {
        "name" : "test2[case0]",
        "uid" : "17ebb79bb5202804",
        "parentUid" : "961b2c2be17d9bf8f4732f176b439cfc",
        "status" : "passed",
        "time" : {
          "start" : 1665540467577,
          "stop" : 1665540468197,
          "duration" : 620
        },
        "flaky" : false,
        "newFailed" : false,
        "parameters" : [ "['c1', '添加销售部门', '', '/api/v4/organizations', 'post', 'json', '', '{\"name\": \"销售部\",             \"parent\":\"ohZJMzry4kgutySSG\",             \"sort_no\": \"100\",           \"hidden\":false,            \"space\":\"jZbiadpgXMzhmtY5M\"}', '{\"organizations_id02\": \"$.value[0]._id\"}', '', '{\"$.value[0].name\": \"销售部\"}']" ]
      }, {
        "name" : "test2[case1]",
        "uid" : "d29d3dc12a10a36e",
        "parentUid" : "961b2c2be17d9bf8f4732f176b439cfc",
        "status" : "passed",
        "time" : {
          "start" : 1665540468207,
          "stop" : 1665540468607,
          "duration" : 400
        },
        "flaky" : false,
        "newFailed" : false,
        "parameters" : [ "['c2', '添加签约对象', '', '/api/v4/accounts', 'post', 'json', '', '{\"name\": \"个人签约对象启用\",\\n\"registered_capital\":1000,\\n\"category\": 1,\\n\"company_ids\":[ \"${organizations_id02}\"],\\n\"status\": 1,\\n\"space\": \"jZbiadpgXMzhmtY5M\"\\n}', '{\"accounts_id01\": \"$.value[0]._id\"}', '', '{\"$.value[0].name\": \"个人签约对象启用\"}']" ]
      }, {
        "name" : "test2[case2]",
        "uid" : "fcb3a94e1f6022e3",
        "parentUid" : "961b2c2be17d9bf8f4732f176b439cfc",
        "status" : "passed",
        "time" : {
          "start" : 1665540468607,
          "stop" : 1665540469086,
          "duration" : 479
        },
        "flaky" : false,
        "newFailed" : false,
        "parameters" : [ "['c3', '修改签约对象', '', '/api/v4/accounts/${accounts_id01}', 'put', 'json', '', '{\"name\": \"王五\",\\n\"registered_capital\":1000,\\n\"category\": 1,\\n\"company_ids\":[\"${organizations_id02}\"],\\n\"status\": 1,\\n\"space\": \"jZbiadpgXMzhmtY5M\"\\n}', '', '', '{}']" ]
      }, {
        "name" : "test2[case3]",
        "uid" : "77d1832f68dacbb3",
        "parentUid" : "961b2c2be17d9bf8f4732f176b439cfc",
        "status" : "passed",
        "time" : {
          "start" : 1665540469096,
          "stop" : 1665540469546,
          "duration" : 450
        },
        "flaky" : false,
        "newFailed" : false,
        "parameters" : [ "['c4', '列出签约对象', '', '/api/v4/accounts', 'get', 'params', '', '', '', '', '']" ]
      }, {
        "name" : "test2[case4]",
        "uid" : "fd4e217621424f28",
        "parentUid" : "961b2c2be17d9bf8f4732f176b439cfc",
        "status" : "passed",
        "time" : {
          "start" : 1665540469546,
          "stop" : 1665540469946,
          "duration" : 400
        },
        "flaky" : false,
        "newFailed" : false,
        "parameters" : [ "['c5', '删除签约对象', '', '/api/v4/accounts/${accounts_id01}', 'delete', 'params', '', '', '', '', '{}']" ]
      }, {
        "name" : "test2[case5]",
        "uid" : "a876d8d99190875a",
        "parentUid" : "961b2c2be17d9bf8f4732f176b439cfc",
        "status" : "passed",
        "time" : {
          "start" : 1665540469946,
          "stop" : 1665540470651,
          "duration" : 705
        },
        "flaky" : false,
        "newFailed" : false,
        "parameters" : [ "['c7', '删除部门', '', '/api/v4/organizations/${organizations_id02}', 'delete', 'params', '', '', '', '', '{}']" ]
      } ],
      "uid" : "961b2c2be17d9bf8f4732f176b439cfc"
    }, {
      "name" : "test_org",
      "children" : [ {
        "name" : "test2[case0]",
        "uid" : "90b8e8cade91bcb3",
        "parentUid" : "8bf45e2fd3671c9716f967368d5a8d75",
        "status" : "passed",
        "time" : {
          "start" : 1665540470660,
          "stop" : 1665540471475,
          "duration" : 815
        },
        "flaky" : false,
        "newFailed" : false,
        "parameters" : [ "['c2', '添加部门', '', '/api/v4/organizations', 'post', 'json', '', '{\"name\": \"张三3\",             \"parent\":\"ohZJMzry4kgutySSG\",             \"sort_no\": \"100\",           \"hidden\":false,            \"space\":\"jZbiadpgXMzhmtY5M\"}', '{\"department_id01\": \"$.value[0]._id\"}', '', '{\"$.value[0].name\": \"张三3\",\"$.value[0].fullname\": \"张三3\"}']" ]
      }, {
        "name" : "test2[case1]",
        "uid" : "d8562b693551b85a",
        "parentUid" : "8bf45e2fd3671c9716f967368d5a8d75",
        "status" : "passed",
        "time" : {
          "start" : 1665540471485,
          "stop" : 1665540471855,
          "duration" : 370
        },
        "flaky" : false,
        "newFailed" : false,
        "parameters" : [ "['c3', '列出部门', '', '/api/v4/organizations', 'get', 'params', '', '', '', '', '{\"$.value[0].name\": \"火龙\"}']" ]
      }, {
        "name" : "test2[case2]",
        "uid" : "246b681236286fe6",
        "parentUid" : "8bf45e2fd3671c9716f967368d5a8d75",
        "status" : "passed",
        "time" : {
          "start" : 1665540471865,
          "stop" : 1665540472909,
          "duration" : 1044
        },
        "flaky" : false,
        "newFailed" : false,
        "parameters" : [ "['c4', '修改部门', '', '/api/v4/organizations/${department_id01}', 'put', 'json', '', '{\"name\": \"王五1\",             \"parent\":\"ohZJMzry4kgutySSG\",             \"sort_no\": \"100\",           \"hidden\":false,            \"space\":\"jZbiadpgXMzhmtY5M\"}', '', '', '{}']" ]
      }, {
        "name" : "test2[case3]",
        "uid" : "22fdaa818cd3b1fb",
        "parentUid" : "8bf45e2fd3671c9716f967368d5a8d75",
        "status" : "passed",
        "time" : {
          "start" : 1665540472909,
          "stop" : 1665540473722,
          "duration" : 813
        },
        "flaky" : false,
        "newFailed" : false,
        "parameters" : [ "['c5', '删除部门', '', '/api/v4/organizations/${department_id01}', 'delete', 'params', '', '', '', '', '{}']" ]
      }, {
        "name" : "test2[case4]",
        "uid" : "503a01eb2f88639e",
        "parentUid" : "8bf45e2fd3671c9716f967368d5a8d75",
        "status" : "passed",
        "time" : {
          "start" : 1665540473732,
          "stop" : 1665540474142,
          "duration" : 410
        },
        "flaky" : false,
        "newFailed" : false,
        "parameters" : [ "['c7', '添加合同分类', '', '/api/v4/contract_types', 'post', 'json', '', '{\"name\": \"房租合同\", \\n\"code\": \"2020\", \\n\"space\":\"jZbiadpgXMzhmtY5M\"\\n}', '{\"contract_type_id01\": \"$.value[0]._id\"}', '', '{\"$.value[0].name\": \"房租合同\"}']" ]
      }, {
        "name" : "test2[case5]",
        "uid" : "587c9883371ef5df",
        "parentUid" : "8bf45e2fd3671c9716f967368d5a8d75",
        "status" : "passed",
        "time" : {
          "start" : 1665540474152,
          "stop" : 1665540474542,
          "duration" : 390
        },
        "flaky" : false,
        "newFailed" : false,
        "parameters" : [ "['c8', '修改合同分类', '', '/api/v4/contract_types/${contract_type_id01}', 'put', 'json', '', '{\"name\": \"合同2\", \\n\"code\": \"2020\", \\n\"space\":\"jZbiadpgXMzhmtY5M\"\\n}', '', '', '{}']" ]
      }, {
        "name" : "test2[case6]",
        "uid" : "1d9e1cad4570044f",
        "parentUid" : "8bf45e2fd3671c9716f967368d5a8d75",
        "status" : "passed",
        "time" : {
          "start" : 1665540474552,
          "stop" : 1665540474982,
          "duration" : 430
        },
        "flaky" : false,
        "newFailed" : false,
        "parameters" : [ "['c10', '删除合同分类', '', '/api/v4/contract_types/${contract_type_id01}', 'delete', 'params', '', '', '', '', '{}']" ]
      } ],
      "uid" : "8bf45e2fd3671c9716f967368d5a8d75"
    } ],
    "uid" : "testcase.api"
  } ]
}