INFO     root:client.py:52 
最终请求地址:https://cn.steedos.cn/api/v4/organizations
请求方法:get
请求头:{}
请求参数:
上传文件:
响应数据:{'@odata.context': 'https://cn.steedos.cn/api/odata/v4/jZbiadpgXMzhmtY5M/$metadata#organizations', '@odata.count': 7, 'value': [{'@odata.id': "https://cn.steedos.cn/api/odata/v4/jZbiadpgXMzhmtY5M/organizations('ohZJMzry4kgutySSG')", '@odata.etag': 'W/"08D589720BBB3DB1"', '@odata.editLink': "https://cn.steedos.cn/api/odata/v4/jZbiadpgXMzhmtY5M/organizations('ohZJMzry4kgutySSG')", '_id': 'ohZJMzry4kgutySSG', 'name': '火龙', 'fullname': '火龙', 'is_company': True, 'users': ['6058b22a30f09d001cae1dec', 'rP5w9TMy7ph25KQBv', 'y4ZfyQaTCXLbrYhYb', 'zXX237YGKovQG6qEh', 'KebZrSXvro66YzAA7', 'KiwZnFLW8MNa4DXtp', 'NDsNxoA6znSZu7Gjv', 'LDQ6yXP5Cw3gX87dG', 'i7L74BzzSJswLgrB7', 'N6gS7cFRwFteb99T7'], 'company_id': 'ohZJMzry4kgutySSG', 'space': 'jZbiadpgXMzhmtY5M', 'owner': '6058b22a30f09d001cae1dec', 'created_by': '6058b22a30f09d001cae1dec', 'created': '2021-03-22T15:05:36.503Z', 'modified_by': '6058b22a30f09d001cae1dec', 'modified': '2021-03-22T15:05:36.503Z', 'children': ['Dcar5te4HRpsM5raW', 'HYNBEyyLvuDTkCEDZ', 'aunbMzTxWhCbj6jhR', 'qjF5MkjLETG4CnHoN', 'AJwDszyGvDD6bSgtE', 'qYW6stA2jrGBZisa3']}, {'@odata.id': "https://cn.steedos.cn/api/odata/v4/jZbiadpgXMzhmtY5M/organizations('Dcar5te4HRpsM5raW')", '@odata.etag': 'W/"08D589720BBB3DB1"', '@odata.editLink': "https://cn.steedos.cn/api/odata/v4/jZbiadpgXMzhmtY5M/organizations('Dcar5te4HRpsM5raW')", '_id': 'Dcar5te4HRpsM5raW', 'name': '视野部', 'parent': 'ohZJMzry4kgutySSG', 'sort_no': '小', 'hidden': False, 'space': 'jZbiadpgXMzhmtY5M', 'created_by': '6058b22a30f09d001cae1dec', 'created': '2021-09-07T06:42:57.950Z', 'modified_by': '6058b22a30f09d001cae1dec', 'modified': '2021-09-07T06:42:57.950Z', 'company_id': 'ohZJMzry4kgutySSG', 'owner': '6058b22a30f09d001cae1dec', 'parents': ['ohZJMzry4kgutySSG'], 'fullname': '视野部', 'users': ['rP5w9TMy7ph25KQBv', 'RmSKRk4qgcfLRfpJC']}, {'@odata.id': "https://cn.steedos.cn/api/odata/v4/jZbiadpgXMzhmtY5M/organizations('HYNBEyyLvuDTkCEDZ')", '@odata.etag': 'W/"08D589720BBB3DB1"', '@odata.editLink': "https://cn.steedos.cn/api/odata/v4/jZbiadpgXMzhmtY5M/organizations('HYNBEyyLvuDTkCEDZ')", '_id': 'HYNBEyyLvuDTkCEDZ', 'name': '视野部', 'parent': 'ohZJMzry4kgutySSG', 'sort_no': '100', 'hidden': '小', 'space': 'jZbiadpgXMzhmtY5M', 'created_by': '6058b22a30f09d001cae1dec', 'created': '2021-09-07T06:43:04.727Z', 'modified_by': '6058b22a30f09d001cae1dec', 'modified': '2021-09-07T06:43:04.727Z', 'company_id': 'ohZJMzry4kgutySSG', 'owner': '6058b22a30f09d001cae1dec', 'parents': ['ohZJMzry4kgutySSG'], 'fullname': '视野部', 'users': ['rP5w9TMy7ph25KQBv'], 'children': []}, {'@odata.id': "https://cn.steedos.cn/api/odata/v4/jZbiadpgXMzhmtY5M/organizations('aunbMzTxWhCbj6jhR')", '@odata.etag': 'W/"08D589720BBB3DB1"', '@odata.editLink': "https://cn.steedos.cn/api/odata/v4/jZbiadpgXMzhmtY5M/organizations('aunbMzTxWhCbj6jhR')", '_id': 'aunbMzTxWhCbj6jhR', 'name': '销售部', 'parent': 'ohZJMzry4kgutySSG', 'sort_no': '100', 'hidden': False, 'space': 'jZbiadpgXMzhmtY5M', 'created_by': '6058b22a30f09d001cae1dec', 'created': '2022-10-11T15:35:17.274Z', 'modified_by': '6058b22a30f09d001cae1dec', 'modified': '2022-10-11T15:35:17.275Z', 'company_id': 'ohZJMzry4kgutySSG', 'owner': '6058b22a30f09d001cae1dec', 'fullname': '销售部', 'parents': ['ohZJMzry4kgutySSG']}, {'@odata.id': "https://cn.steedos.cn/api/odata/v4/jZbiadpgXMzhmtY5M/organizations('qjF5MkjLETG4CnHoN')", '@odata.etag': 'W/"08D589720BBB3DB1"', '@odata.editLink': "https://cn.steedos.cn/api/odata/v4/jZbiadpgXMzhmtY5M/organizations('qjF5MkjLETG4CnHoN')", '_id': 'qjF5MkjLETG4CnHoN', 'name': '销售部', 'parent': 'ohZJMzry4kgutySSG', 'sort_no': '100', 'hidden': False, 'space': 'jZbiadpgXMzhmtY5M', 'created_by': '6058b22a30f09d001cae1dec', 'created': '2022-10-11T15:49:26.697Z', 'modified_by': '6058b22a30f09d001cae1dec', 'modified': '2022-10-11T15:49:26.697Z', 'company_id': 'ohZJMzry4kgutySSG', 'owner': '6058b22a30f09d001cae1dec', 'fullname': '销售部', 'parents': ['ohZJMzry4kgutySSG']}, {'@odata.id': "https://cn.steedos.cn/api/odata/v4/jZbiadpgXMzhmtY5M/organizations('AJwDszyGvDD6bSgtE')", '@odata.etag': 'W/"08D589720BBB3DB1"', '@odata.editLink': "https://cn.steedos.cn/api/odata/v4/jZbiadpgXMzhmtY5M/organizations('AJwDszyGvDD6bSgtE')", '_id': 'AJwDszyGvDD6bSgtE', 'name': '销售部', 'parent': 'ohZJMzry4kgutySSG', 'sort_no': '100', 'hidden': False, 'space': 'jZbiadpgXMzhmtY5M', 'created_by': '6058b22a30f09d001cae1dec', 'created': '2022-10-11T15:56:04.189Z', 'modified_by': '6058b22a30f09d001cae1dec', 'modified': '2022-10-11T15:56:04.189Z', 'company_id': 'ohZJMzry4kgutySSG', 'owner': '6058b22a30f09d001cae1dec', 'fullname': '销售部', 'parents': ['ohZJMzry4kgutySSG']}, {'@odata.id': "https://cn.steedos.cn/api/odata/v4/jZbiadpgXMzhmtY5M/organizations('qYW6stA2jrGBZisa3')", '@odata.etag': 'W/"08D589720BBB3DB1"', '@odata.editLink': "https://cn.steedos.cn/api/odata/v4/jZbiadpgXMzhmtY5M/organizations('qYW6stA2jrGBZisa3')", '_id': 'qYW6stA2jrGBZisa3', 'name': '张三3', 'parent': 'ohZJMzry4kgutySSG', 'sort_no': '100', 'hidden': False, 'space': 'jZbiadpgXMzhmtY5M', 'created_by': '6058b22a30f09d001cae1dec', 'created': '2022-10-12T02:07:51.417Z', 'modified_by': '6058b22a30f09d001cae1dec', 'modified': '2022-10-12T02:07:51.417Z', 'company_id': 'ohZJMzry4kgutySSG', 'owner': '6058b22a30f09d001cae1dec', 'fullname': '张三3', 'parents': ['ohZJMzry4kgutySSG']}]}
INFO     root:data_process.py:129 当前可用参数池为{'organizations_id02': 'EJGTwa5vAMgED89eF', 'accounts_id01': 'y4GYvg6zQfh779CRr', 'department_id01': 'qYW6stA2jrGBZisa3'}
INFO     root:data_process.py:141 第1个断言,实际结果:火龙 | 预期结果:火龙 
断言结果 True